\relax 
\providecommand\hyper@newdestlabel[2]{}
\@nameuse{bbl@beforestart}
\catcode `"\active 
\providecommand\HyperFirstAtBeginDocument{\AtBeginDocument}
\HyperFirstAtBeginDocument{\ifx\hyper@anchor\@undefined
\global\let\oldcontentsline\contentsline
\gdef\contentsline#1#2#3#4{\oldcontentsline{#1}{#2}{#3}}
\global\let\oldnewlabel\newlabel
\gdef\newlabel#1#2{\newlabelxx{#1}#2}
\gdef\newlabelxx#1#2#3#4#5#6{\oldnewlabel{#1}{{#2}{#3}}}
\AtEndDocument{\ifx\hyper@anchor\@undefined
\let\contentsline\oldcontentsline
\let\newlabel\oldnewlabel
\fi}
\fi}
\global\let\hyper@last\relax 
\gdef\HyperFirstAtBeginDocument#1{#1}
\providecommand\HyField@AuxAddToFields[1]{}
\providecommand\HyField@AuxAddToCoFields[2]{}
\providecommand \oddpage@label [2]{}
\@writefile{toc}{\@ifundefined {etoctocstyle}{\let \etoc@startlocaltoc \@gobble \let \etoc@settocdepth \@gobble \let \etoc@depthtag \@gobble \let \etoc@setlocaltop \@gobble }{}}
\babel@aux{ngerman}{}
\@writefile{toc}{\contentsline {chapter}{\numberline {1}Hierarchie-\/\discretionary {\mbox  {\scriptsize  $\hookleftarrow  $}}{}{}Verzeichnis}{1}{chapter.1}\protected@file@percent }
\@writefile{lof}{\addvspace {10\p@ }}
\@writefile{lot}{\addvspace {10\p@ }}
\@writefile{toc}{\contentsline {section}{\numberline {1.1}Klassenhierarchie}{1}{section.1.1}\protected@file@percent }
\@writefile{toc}{\contentsline {chapter}{\numberline {2}Klassen-\/\discretionary {\mbox  {\scriptsize  $\hookleftarrow  $}}{}{}Verzeichnis}{3}{chapter.2}\protected@file@percent }
\@writefile{lof}{\addvspace {10\p@ }}
\@writefile{lot}{\addvspace {10\p@ }}
\@writefile{toc}{\contentsline {section}{\numberline {2.1}Auflistung der Klassen}{3}{section.2.1}\protected@file@percent }
\@writefile{toc}{\contentsline {chapter}{\numberline {3}Datei-\/\discretionary {\mbox  {\scriptsize  $\hookleftarrow  $}}{}{}Verzeichnis}{5}{chapter.3}\protected@file@percent }
\@writefile{lof}{\addvspace {10\p@ }}
\@writefile{lot}{\addvspace {10\p@ }}
\@writefile{toc}{\contentsline {section}{\numberline {3.1}Auflistung der Dateien}{5}{section.3.1}\protected@file@percent }
\@writefile{toc}{\contentsline {chapter}{\numberline {4}Klassen-\/\discretionary {\mbox  {\scriptsize  $\hookleftarrow  $}}{}{}Dokumentation}{7}{chapter.4}\protected@file@percent }
\@writefile{lof}{\addvspace {10\p@ }}
\@writefile{lot}{\addvspace {10\p@ }}
\@writefile{toc}{\contentsline {section}{\numberline {4.1}Ausgabe\discretionary {\mbox  {\scriptsize  $\hookleftarrow  $}}{}{}Board Klassenreferenz}{7}{section.4.1}\protected@file@percent }
\newlabel{class_ausgabe_board}{{4.1}{7}{Ausgabe\+Board Klassenreferenz}{section.4.1}{}}
\newlabel{class_ausgabe_board_a7a4c4afd5fc8e335ce5651d70a1a5ccf}{{4.1}{7}{Private Attribute}{section*.3}{}}
\newlabel{class_ausgabe_board_a4d408df7f237cf7c0b5a8e594d9e3e4a}{{4.1}{7}{Private Attribute}{section*.3}{}}
\@writefile{toc}{\contentsline {subsection}{\numberline {4.1.1}Ausführliche Beschreibung}{7}{subsection.4.1.1}\protected@file@percent }
\gdef \LT@i {\LT@entry 
    {3}{53.30824pt}\LT@entry 
    {3}{190.08305pt}}
\@writefile{toc}{\contentsline {subsection}{\numberline {4.1.2}Beschreibung der Konstruktoren und Destruktoren}{8}{subsection.4.1.2}\protected@file@percent }
\newlabel{class_ausgabe_board_a0d0c3158677a7eabb2d9aa29fa39e129}{{4.1.2}{8}{Beschreibung der Konstruktoren und Destruktoren}{subsection.4.1.2}{}}
\@writefile{toc}{\contentsline {subsubsection}{\numberline {4.1.2.1}AusgabeBoard()}{8}{subsubsection.4.1.2.1}\protected@file@percent }
\@writefile{toc}{\contentsline {subsection}{\numberline {4.1.3}Dokumentation der Elementfunktionen}{8}{subsection.4.1.3}\protected@file@percent }
\newlabel{class_ausgabe_board_ab8984fcf9d1ed9ae74ff44096426853f}{{4.1.3}{8}{Dokumentation der Elementfunktionen}{subsection.4.1.3}{}}
\@writefile{toc}{\contentsline {subsubsection}{\numberline {4.1.3.1}deactivate()}{8}{subsubsection.4.1.3.1}\protected@file@percent }
\newlabel{class_ausgabe_board_aa44209a802f3563367a2654cfb6df181}{{4.1.3.1}{8}{\texorpdfstring {deactivate()}{deactivate()}}{subsubsection.4.1.3.1}{}}
\@writefile{toc}{\contentsline {subsubsection}{\numberline {4.1.3.2}setCurrentless()}{8}{subsubsection.4.1.3.2}\protected@file@percent }
\newlabel{class_ausgabe_board_a0a28a363d799de50efbf9cf9c1a36183}{{4.1.3.2}{8}{\texorpdfstring {setCurrentless()}{setCurrentless()}}{subsubsection.4.1.3.2}{}}
\@writefile{toc}{\contentsline {subsubsection}{\numberline {4.1.3.3}setDirection()}{8}{subsubsection.4.1.3.3}\protected@file@percent }
\newlabel{class_ausgabe_board_a8e719f5ebeb01d1299285a602be33989}{{4.1.3.3}{9}{\texorpdfstring {setDirection()}{setDirection()}}{table.4.1}{}}
\@writefile{toc}{\contentsline {subsubsection}{\numberline {4.1.3.4}start()}{9}{subsubsection.4.1.3.4}\protected@file@percent }
\newlabel{class_ausgabe_board_a7851f0c55054a1c0f2eb427f1d21999a}{{4.1.3.4}{9}{\texorpdfstring {start()}{start()}}{subsubsection.4.1.3.4}{}}
\@writefile{toc}{\contentsline {subsubsection}{\numberline {4.1.3.5}stop()}{9}{subsubsection.4.1.3.5}\protected@file@percent }
\@writefile{toc}{\contentsline {section}{\numberline {4.2}Ausgabe\discretionary {\mbox  {\scriptsize  $\hookleftarrow  $}}{}{}Konsole Klassenreferenz}{9}{section.4.2}\protected@file@percent }
\newlabel{class_ausgabe_konsole}{{4.2}{9}{Ausgabe\+Konsole Klassenreferenz}{section.4.2}{}}
\@writefile{toc}{\contentsline {subsection}{\numberline {4.2.1}Ausführliche Beschreibung}{10}{subsection.4.2.1}\protected@file@percent }
\@writefile{toc}{\contentsline {subsection}{\numberline {4.2.2}Beschreibung der Konstruktoren und Destruktoren}{10}{subsection.4.2.2}\protected@file@percent }
\newlabel{class_ausgabe_konsole_a5938be65b8087d4366e6440b1d5fcaee}{{4.2.2}{10}{Beschreibung der Konstruktoren und Destruktoren}{subsection.4.2.2}{}}
\@writefile{toc}{\contentsline {subsubsection}{\numberline {4.2.2.1}AusgabeKonsole()}{10}{subsubsection.4.2.2.1}\protected@file@percent }
\@writefile{toc}{\contentsline {subsection}{\numberline {4.2.3}Dokumentation der Elementfunktionen}{10}{subsection.4.2.3}\protected@file@percent }
\newlabel{class_ausgabe_konsole_a16b28cbfc43d6f7cdbf70823d6912ab4}{{4.2.3}{10}{Dokumentation der Elementfunktionen}{subsection.4.2.3}{}}
\@writefile{toc}{\contentsline {subsubsection}{\numberline {4.2.3.1}deactivate()}{10}{subsubsection.4.2.3.1}\protected@file@percent }
\newlabel{class_ausgabe_konsole_a12de2ef5d55e3da4f09f8031e571c800}{{4.2.3.1}{10}{\texorpdfstring {deactivate()}{deactivate()}}{subsubsection.4.2.3.1}{}}
\@writefile{toc}{\contentsline {subsubsection}{\numberline {4.2.3.2}setCurrentless()}{10}{subsubsection.4.2.3.2}\protected@file@percent }
\newlabel{class_ausgabe_konsole_a9fb6d6a89c32892e68c64b4539fc3057}{{4.2.3.2}{10}{\texorpdfstring {setCurrentless()}{setCurrentless()}}{subsubsection.4.2.3.2}{}}
\@writefile{toc}{\contentsline {subsubsection}{\numberline {4.2.3.3}setDirection()}{10}{subsubsection.4.2.3.3}\protected@file@percent }
\gdef \LT@ii {\LT@entry 
    {3}{53.30824pt}\LT@entry 
    {3}{190.08305pt}}
\newlabel{class_ausgabe_konsole_a273b8383f785728b2dc5b8f480ae6732}{{4.2.3.3}{11}{\texorpdfstring {setDirection()}{setDirection()}}{table.4.2}{}}
\@writefile{toc}{\contentsline {subsubsection}{\numberline {4.2.3.4}start()}{11}{subsubsection.4.2.3.4}\protected@file@percent }
\newlabel{class_ausgabe_konsole_aaf86f750fc88f921e3ba33b80a0591e0}{{4.2.3.4}{11}{\texorpdfstring {start()}{start()}}{subsubsection.4.2.3.4}{}}
\@writefile{toc}{\contentsline {subsubsection}{\numberline {4.2.3.5}stop()}{11}{subsubsection.4.2.3.5}\protected@file@percent }
\@writefile{toc}{\contentsline {section}{\numberline {4.3}Beenden Klassenreferenz}{11}{section.4.3}\protected@file@percent }
\newlabel{class_beenden}{{4.3}{11}{Beenden Klassenreferenz}{section.4.3}{}}
\gdef \LT@iii {\LT@entry 
    {3}{74.70097pt}\LT@entry 
    {3}{141.55653pt}}
\@writefile{toc}{\contentsline {subsection}{\numberline {4.3.1}Ausführliche Beschreibung}{12}{subsection.4.3.1}\protected@file@percent }
\@writefile{toc}{\contentsline {subsection}{\numberline {4.3.2}Dokumentation der Elementfunktionen}{12}{subsection.4.3.2}\protected@file@percent }
\newlabel{class_beenden_a0d5779cce78bc663d4743223cc080153}{{4.3.2}{12}{Dokumentation der Elementfunktionen}{subsection.4.3.2}{}}
\@writefile{toc}{\contentsline {subsubsection}{\numberline {4.3.2.1}buttonInput()}{12}{subsubsection.4.3.2.1}\protected@file@percent }
\newlabel{class_beenden_a8c4ef4a090d1afd4f60a8b0b393316e0}{{4.3.2.1}{12}{\texorpdfstring {buttonInput()}{buttonInput()}}{table.4.3}{}}
\@writefile{toc}{\contentsline {subsubsection}{\numberline {4.3.2.2}handle()}{12}{subsubsection.4.3.2.2}\protected@file@percent }
\@writefile{toc}{\contentsline {section}{\numberline {4.4}Betriebszustand Klassenreferenz}{12}{section.4.4}\protected@file@percent }
\newlabel{class_betriebszustand}{{4.4}{12}{Betriebszustand Klassenreferenz}{section.4.4}{}}
\newlabel{class_betriebszustand_a5fa370f1d0efc2d6d5ca392503b3a2c0}{{4.4}{13}{Öffentliche Methoden}{section*.12}{}}
\newlabel{class_betriebszustand_a1c6f5e3acfacece1c970aa2758601625}{{4.4}{13}{Öffentliche Methoden}{section*.12}{}}
\newlabel{class_betriebszustand_a3b4c29ea1d2b11fc941b727229ba3068}{{4.4}{13}{Geschützte Attribute}{section*.13}{}}
\@writefile{toc}{\contentsline {subsection}{\numberline {4.4.1}Ausführliche Beschreibung}{13}{subsection.4.4.1}\protected@file@percent }
\@writefile{toc}{\contentsline {subsection}{\numberline {4.4.2}Beschreibung der Konstruktoren und Destruktoren}{13}{subsection.4.4.2}\protected@file@percent }
\newlabel{class_betriebszustand_a4beb431bd17c3a382b9390fbaa648046}{{4.4.2}{13}{Beschreibung der Konstruktoren und Destruktoren}{subsection.4.4.2}{}}
\@writefile{toc}{\contentsline {subsubsection}{\numberline {4.4.2.1}Betriebszustand()}{13}{subsubsection.4.4.2.1}\protected@file@percent }
\newlabel{class_betriebszustand_a800110d35e01232291273caacafe2ea9}{{4.4.2.1}{13}{\texorpdfstring {Betriebszustand()}{Betriebszustand()}}{subsubsection.4.4.2.1}{}}
\@writefile{toc}{\contentsline {subsubsection}{\numberline {4.4.2.2}$\sim $Betriebszustand()}{13}{subsubsection.4.4.2.2}\protected@file@percent }
\@writefile{toc}{\contentsline {section}{\numberline {4.5}Eingabe Klassenreferenz}{13}{section.4.5}\protected@file@percent }
\newlabel{class_eingabe}{{4.5}{13}{Eingabe Klassenreferenz}{section.4.5}{}}
\newlabel{class_eingabe_afd1ff618822c326fe179ea60e83c7c25}{{4.5}{14}{Öffentliche Methoden}{section*.15}{}}
\@writefile{toc}{\contentsline {subsection}{\numberline {4.5.1}Ausführliche Beschreibung}{14}{subsection.4.5.1}\protected@file@percent }
\@writefile{toc}{\contentsline {section}{\numberline {4.6}Eingabe\discretionary {\mbox  {\scriptsize  $\hookleftarrow  $}}{}{}Konsole Klassenreferenz}{14}{section.4.6}\protected@file@percent }
\newlabel{class_eingabe_konsole}{{4.6}{14}{Eingabe\+Konsole Klassenreferenz}{section.4.6}{}}
\@writefile{toc}{\contentsline {subsection}{\numberline {4.6.1}Ausführliche Beschreibung}{14}{subsection.4.6.1}\protected@file@percent }
\@writefile{toc}{\contentsline {subsection}{\numberline {4.6.2}Dokumentation der Elementfunktionen}{14}{subsection.4.6.2}\protected@file@percent }
\newlabel{class_eingabe_konsole_a9d86a340771e4aab3baba031ad7f3ae5}{{4.6.2}{14}{Dokumentation der Elementfunktionen}{subsection.4.6.2}{}}
\@writefile{toc}{\contentsline {subsubsection}{\numberline {4.6.2.1}getTasterValue()}{14}{subsubsection.4.6.2.1}\protected@file@percent }
\@writefile{toc}{\contentsline {section}{\numberline {4.7}Garagentorsteuerung Klassenreferenz}{15}{section.4.7}\protected@file@percent }
\newlabel{class_garagentorsteuerung}{{4.7}{15}{Garagentorsteuerung Klassenreferenz}{section.4.7}{}}
\newlabel{class_garagentorsteuerung_aeab7adf2d90416b3f55197fc84337093}{{4.7}{15}{Private Attribute}{section*.19}{}}
\@writefile{toc}{\contentsline {subsection}{\numberline {4.7.1}Ausführliche Beschreibung}{15}{subsection.4.7.1}\protected@file@percent }
\@writefile{toc}{\contentsline {subsection}{\numberline {4.7.2}Beschreibung der Konstruktoren und Destruktoren}{15}{subsection.4.7.2}\protected@file@percent }
\newlabel{class_garagentorsteuerung_a381b93d09af6d2e019e81ded02c4c12c}{{4.7.2}{15}{Beschreibung der Konstruktoren und Destruktoren}{subsection.4.7.2}{}}
\@writefile{toc}{\contentsline {subsubsection}{\numberline {4.7.2.1}Garagentorsteuerung()}{15}{subsubsection.4.7.2.1}\protected@file@percent }
\newlabel{class_garagentorsteuerung_a49fbe47a06d89f051ee5b5395417bcbd}{{4.7.2.1}{15}{\texorpdfstring {Garagentorsteuerung()}{Garagentorsteuerung()}}{subsubsection.4.7.2.1}{}}
\@writefile{toc}{\contentsline {subsubsection}{\numberline {4.7.2.2}$\sim $Garagentorsteuerung()}{15}{subsubsection.4.7.2.2}\protected@file@percent }
\@writefile{toc}{\contentsline {subsection}{\numberline {4.7.3}Dokumentation der Elementfunktionen}{15}{subsection.4.7.3}\protected@file@percent }
\newlabel{class_garagentorsteuerung_afe508ab9d8bec7b6fabecab6c7eae95f}{{4.7.3}{15}{Dokumentation der Elementfunktionen}{subsection.4.7.3}{}}
\@writefile{toc}{\contentsline {subsubsection}{\numberline {4.7.3.1}buttonInput()}{15}{subsubsection.4.7.3.1}\protected@file@percent }
\gdef \LT@iv {\LT@entry 
    {3}{49.81639pt}\LT@entry 
    {3}{109.94917pt}}
\gdef \LT@v {\LT@entry 
    {3}{57.05212pt}\LT@entry 
    {3}{165.71191pt}}
\newlabel{class_garagentorsteuerung_ad636ce7bcf61217b5f6a7ad9b80f530b}{{4.7.3.1}{16}{\texorpdfstring {buttonInput()}{buttonInput()}}{table.4.4}{}}
\@writefile{toc}{\contentsline {subsubsection}{\numberline {4.7.3.2}changeState()}{16}{subsubsection.4.7.3.2}\protected@file@percent }
\newlabel{class_garagentorsteuerung_a5de6a014e82dea65c55fb29256af5f75}{{4.7.3.2}{16}{\texorpdfstring {changeState()}{changeState()}}{table.4.5}{}}
\@writefile{toc}{\contentsline {subsubsection}{\numberline {4.7.3.3}startApplication()}{16}{subsubsection.4.7.3.3}\protected@file@percent }
\@writefile{toc}{\contentsline {section}{\numberline {4.8}Geschlossen Klassenreferenz}{16}{section.4.8}\protected@file@percent }
\newlabel{class_geschlossen}{{4.8}{16}{Geschlossen Klassenreferenz}{section.4.8}{}}
\gdef \LT@vi {\LT@entry 
    {3}{74.70097pt}\LT@entry 
    {3}{141.55653pt}}
\gdef \LT@vii {\LT@entry 
    {3}{82.46748pt}\LT@entry 
    {3}{134.80649pt}}
\@writefile{toc}{\contentsline {subsection}{\numberline {4.8.1}Ausführliche Beschreibung}{17}{subsection.4.8.1}\protected@file@percent }
\@writefile{toc}{\contentsline {subsection}{\numberline {4.8.2}Dokumentation der Elementfunktionen}{17}{subsection.4.8.2}\protected@file@percent }
\newlabel{class_geschlossen_a84ac39bb3f22c1c94f86f09b0e9e834e}{{4.8.2}{17}{Dokumentation der Elementfunktionen}{subsection.4.8.2}{}}
\@writefile{toc}{\contentsline {subsubsection}{\numberline {4.8.2.1}buttonInput()}{17}{subsubsection.4.8.2.1}\protected@file@percent }
\newlabel{class_geschlossen_a05f381bd12f994bc3a6423a86ea2269a}{{4.8.2.1}{17}{\texorpdfstring {buttonInput()}{buttonInput()}}{table.4.6}{}}
\@writefile{toc}{\contentsline {subsubsection}{\numberline {4.8.2.2}handle()}{17}{subsubsection.4.8.2.2}\protected@file@percent }
\@writefile{toc}{\contentsline {section}{\numberline {4.9}Gpio Klassenreferenz}{17}{section.4.9}\protected@file@percent }
\newlabel{class_gpio}{{4.9}{17}{Gpio Klassenreferenz}{section.4.9}{}}
\newlabel{class_gpio_a2f6d9adc25b7ea23693cad5236c15f3a}{{4.9}{18}{Private Attribute}{section*.24}{}}
\newlabel{class_gpio_adc15cd55e417d627bd83aa011ce545f7}{{4.9}{18}{Private Attribute}{section*.24}{}}
\newlabel{class_gpio_a13dd78636a3d1d026e4aa98444ae9fe1}{{4.9}{18}{Private Attribute}{section*.24}{}}
\newlabel{class_gpio_a5beadd9b1c34894d217cb464bed19dc1}{{4.9}{18}{Private Attribute}{section*.24}{}}
\newlabel{class_gpio_ad769a9a0cd2e0f60bd7a3ee01c12e9d0}{{4.9}{18}{Private Attribute}{section*.24}{}}
\newlabel{class_gpio_ac24522bb80391cb3a9d34b9783f30087}{{4.9}{18}{Private Attribute}{section*.24}{}}
\newlabel{class_gpio_a742fd260f592279d367e34f785b955e4}{{4.9}{18}{Private Attribute}{section*.24}{}}
\newlabel{class_gpio_a4773a68b95136b8f7a0b4bf4a2170121}{{4.9}{18}{Private Attribute}{section*.24}{}}
\newlabel{class_gpio_ae2289b9fc224503f0296e0a922196264}{{4.9}{18}{Private Attribute}{section*.24}{}}
\newlabel{class_gpio_a83ababe0f8ded89718d8e1db75e89bfa}{{4.9}{18}{Private Attribute}{section*.24}{}}
\newlabel{class_gpio_a6dc33f6e4fb4cdcbb57f291721c7d4fc}{{4.9}{18}{Private Attribute}{section*.24}{}}
\newlabel{class_gpio_ad0d3f30871d3ddf44e86a3e47f0404a6}{{4.9}{18}{Private Attribute}{section*.24}{}}
\@writefile{toc}{\contentsline {subsection}{\numberline {4.9.1}Ausführliche Beschreibung}{18}{subsection.4.9.1}\protected@file@percent }
\gdef \LT@viii {\LT@entry 
    {3}{63.67596pt}\LT@entry 
    {3}{238.40361pt}}
\gdef \LT@ix {\LT@entry 
    {3}{30.80864pt}\LT@entry 
    {3}{111.83897pt}}
\@writefile{toc}{\contentsline {subsection}{\numberline {4.9.2}Beschreibung der Konstruktoren und Destruktoren}{19}{subsection.4.9.2}\protected@file@percent }
\newlabel{class_gpio_a7927f17a04c3a4eabc6645f5f0936634}{{4.9.2}{19}{Beschreibung der Konstruktoren und Destruktoren}{subsection.4.9.2}{}}
\@writefile{toc}{\contentsline {subsubsection}{\numberline {4.9.2.1}Gpio()}{19}{subsubsection.4.9.2.1}\protected@file@percent }
\@writefile{toc}{\contentsline {subsection}{\numberline {4.9.3}Dokumentation der Elementfunktionen}{19}{subsection.4.9.3}\protected@file@percent }
\newlabel{class_gpio_a9c85c008cdb3622bfdcc0bd99478922c}{{4.9.3}{19}{Dokumentation der Elementfunktionen}{subsection.4.9.3}{}}
\@writefile{toc}{\contentsline {subsubsection}{\numberline {4.9.3.1}enableGpioClock()}{19}{subsubsection.4.9.3.1}\protected@file@percent }
\newlabel{class_gpio_aa73220fc0673b41659a082319e04619c}{{4.9.3.1}{19}{\texorpdfstring {enableGpioClock()}{enableGpioClock()}}{subsubsection.4.9.3.1}{}}
\@writefile{toc}{\contentsline {subsubsection}{\numberline {4.9.3.2}readPin()}{19}{subsubsection.4.9.3.2}\protected@file@percent }
\newlabel{class_gpio_ad8533db89d398007d0c301225ac67e48}{{4.9.3.2}{19}{\texorpdfstring {readPin()}{readPin()}}{table.4.9}{}}
\gdef \LT@x {\LT@entry 
    {3}{30.80864pt}\LT@entry 
    {3}{111.83897pt}}
\gdef \LT@xi {\LT@entry 
    {3}{40.31252pt}\LT@entry 
    {3}{111.83897pt}}
\@writefile{toc}{\contentsline {subsubsection}{\numberline {4.9.3.3}readPort()}{20}{subsubsection.4.9.3.3}\protected@file@percent }
\newlabel{class_gpio_a345d35d11ea971430c62b6bfa5218a1e}{{4.9.3.3}{20}{\texorpdfstring {readPort()}{readPort()}}{subsubsection.4.9.3.3}{}}
\@writefile{toc}{\contentsline {subsubsection}{\numberline {4.9.3.4}setPinInput()}{20}{subsubsection.4.9.3.4}\protected@file@percent }
\newlabel{class_gpio_a723abc1b324d83ad8250f23bebcbbb5b}{{4.9.3.4}{20}{\texorpdfstring {setPinInput()}{setPinInput()}}{table.4.10}{}}
\@writefile{toc}{\contentsline {subsubsection}{\numberline {4.9.3.5}setPinMode()}{20}{subsubsection.4.9.3.5}\protected@file@percent }
\newlabel{class_gpio_acb44f662ee14f07a19a54c5da92bebfe}{{4.9.3.5}{20}{\texorpdfstring {setPinMode()}{setPinMode()}}{table.4.11}{}}
\@writefile{toc}{\contentsline {subsubsection}{\numberline {4.9.3.6}setPinOff()}{20}{subsubsection.4.9.3.6}\protected@file@percent }
\gdef \LT@xii {\LT@entry 
    {3}{30.80864pt}\LT@entry 
    {3}{111.83897pt}}
\gdef \LT@xiii {\LT@entry 
    {3}{30.80864pt}\LT@entry 
    {3}{111.83897pt}}
\gdef \LT@xiv {\LT@entry 
    {3}{30.80864pt}\LT@entry 
    {3}{111.83897pt}}
\gdef \LT@xv {\LT@entry 
    {3}{40.31252pt}\LT@entry 
    {3}{111.83897pt}}
\newlabel{class_gpio_a52976849442ac1513d8cfaec4194885a}{{4.9.3.6}{21}{\texorpdfstring {setPinOff()}{setPinOff()}}{table.4.12}{}}
\@writefile{toc}{\contentsline {subsubsection}{\numberline {4.9.3.7}setPinOn()}{21}{subsubsection.4.9.3.7}\protected@file@percent }
\newlabel{class_gpio_a10c326c416a95d545764e5fff4de5ebd}{{4.9.3.7}{21}{\texorpdfstring {setPinOn()}{setPinOn()}}{table.4.13}{}}
\@writefile{toc}{\contentsline {subsubsection}{\numberline {4.9.3.8}setPinOutput()}{21}{subsubsection.4.9.3.8}\protected@file@percent }
\newlabel{class_gpio_a933039ee06122416538cfa3c999423d9}{{4.9.3.8}{21}{\texorpdfstring {setPinOutput()}{setPinOutput()}}{table.4.14}{}}
\@writefile{toc}{\contentsline {subsubsection}{\numberline {4.9.3.9}setPinOutputSpeed()}{21}{subsubsection.4.9.3.9}\protected@file@percent }
\newlabel{class_gpio_aaca875f8cb1e80d0b5ec1e78d0abbc34}{{4.9.3.9}{21}{\texorpdfstring {setPinOutputSpeed()}{setPinOutputSpeed()}}{table.4.15}{}}
\gdef \LT@xvi {\LT@entry 
    {3}{40.31252pt}\LT@entry 
    {3}{111.83897pt}}
\gdef \LT@xvii {\LT@entry 
    {3}{40.31252pt}\LT@entry 
    {3}{111.83897pt}}
\gdef \LT@xviii {\LT@entry 
    {3}{40.1865pt}\LT@entry 
    {3}{118.20164pt}}
\@writefile{toc}{\contentsline {subsubsection}{\numberline {4.9.3.10}setPinOutputType()}{22}{subsubsection.4.9.3.10}\protected@file@percent }
\newlabel{class_gpio_ae3a3c77d585917d92173c7e4176b4cd9}{{4.9.3.10}{22}{\texorpdfstring {setPinOutputType()}{setPinOutputType()}}{table.4.16}{}}
\@writefile{toc}{\contentsline {subsubsection}{\numberline {4.9.3.11}setPinPullUpPullDown()}{22}{subsubsection.4.9.3.11}\protected@file@percent }
\newlabel{class_gpio_a8417b9529a01382c26a0d1b197ad8d42}{{4.9.3.11}{22}{\texorpdfstring {setPinPullUpPullDown()}{setPinPullUpPullDown()}}{table.4.17}{}}
\@writefile{toc}{\contentsline {subsubsection}{\numberline {4.9.3.12}setPort()}{22}{subsubsection.4.9.3.12}\protected@file@percent }
\newlabel{class_gpio_a4877ca7beceded608146c148b630ee46}{{4.9.3.12}{22}{\texorpdfstring {setPort()}{setPort()}}{table.4.18}{}}
\@writefile{toc}{\contentsline {subsubsection}{\numberline {4.9.3.13}togglePin()}{22}{subsubsection.4.9.3.13}\protected@file@percent }
\gdef \LT@xix {\LT@entry 
    {3}{30.80864pt}\LT@entry 
    {3}{111.83897pt}}
\@writefile{toc}{\contentsline {section}{\numberline {4.10}In\discretionary {\mbox  {\scriptsize  $\hookleftarrow  $}}{}{}Betrieb Klassenreferenz}{23}{section.4.10}\protected@file@percent }
\newlabel{class_in_betrieb}{{4.10}{23}{In\+Betrieb Klassenreferenz}{section.4.10}{}}
\newlabel{class_in_betrieb_a424a877893070cb3ff837b8682dc1b9e}{{4.10}{23}{Private Attribute}{section*.27}{}}
\@writefile{toc}{\contentsline {subsection}{\numberline {4.10.1}Ausführliche Beschreibung}{23}{subsection.4.10.1}\protected@file@percent }
\@writefile{toc}{\contentsline {subsection}{\numberline {4.10.2}Beschreibung der Konstruktoren und Destruktoren}{23}{subsection.4.10.2}\protected@file@percent }
\newlabel{class_in_betrieb_afeb1da37c3e481afaf56b15aaa43ca50}{{4.10.2}{23}{Beschreibung der Konstruktoren und Destruktoren}{subsection.4.10.2}{}}
\gdef \LT@xx {\LT@entry 
    {3}{74.70097pt}\LT@entry 
    {3}{141.55653pt}}
\gdef \LT@xxi {\LT@entry 
    {3}{57.05212pt}\LT@entry 
    {3}{165.71191pt}}
\@writefile{toc}{\contentsline {subsubsection}{\numberline {4.10.2.1}InBetrieb()}{24}{subsubsection.4.10.2.1}\protected@file@percent }
\newlabel{class_in_betrieb_ac5f7b6c406a5738b93032bd92028757a}{{4.10.2.1}{24}{\texorpdfstring {InBetrieb()}{InBetrieb()}}{subsubsection.4.10.2.1}{}}
\@writefile{toc}{\contentsline {subsubsection}{\numberline {4.10.2.2}$\sim $InBetrieb()}{24}{subsubsection.4.10.2.2}\protected@file@percent }
\@writefile{toc}{\contentsline {subsection}{\numberline {4.10.3}Dokumentation der Elementfunktionen}{24}{subsection.4.10.3}\protected@file@percent }
\newlabel{class_in_betrieb_a6dfe83fc743287bcc87f00553c161d54}{{4.10.3}{24}{Dokumentation der Elementfunktionen}{subsection.4.10.3}{}}
\@writefile{toc}{\contentsline {subsubsection}{\numberline {4.10.3.1}buttonInput()}{24}{subsubsection.4.10.3.1}\protected@file@percent }
\newlabel{class_in_betrieb_ab8b23b7e19f8af294ba2a4fe63a52f98}{{4.10.3.1}{24}{\texorpdfstring {buttonInput()}{buttonInput()}}{table.4.20}{}}
\@writefile{toc}{\contentsline {subsubsection}{\numberline {4.10.3.2}changeState()}{24}{subsubsection.4.10.3.2}\protected@file@percent }
\newlabel{class_in_betrieb_aa55d7b02e9a93a7a6a456f197511ca11}{{4.10.3.2}{24}{\texorpdfstring {changeState()}{changeState()}}{table.4.21}{}}
\@writefile{toc}{\contentsline {subsubsection}{\numberline {4.10.3.3}handle()}{25}{subsubsection.4.10.3.3}\protected@file@percent }
\@writefile{toc}{\contentsline {section}{\numberline {4.11}Motor\discretionary {\mbox  {\scriptsize  $\hookleftarrow  $}}{}{}Steuerung Klassenreferenz}{25}{section.4.11}\protected@file@percent }
\newlabel{class_motor_steuerung}{{4.11}{25}{Motor\+Steuerung Klassenreferenz}{section.4.11}{}}
\newlabel{class_motor_steuerung_ab361681c827c9f85ff3f76d08497db34}{{4.11}{25}{Öffentliche Methoden}{section*.30}{}}
\newlabel{class_motor_steuerung_a4050e9ff8ad5bc38bc27b08c16c0e3f6}{{4.11}{25}{Öffentliche Methoden}{section*.30}{}}
\newlabel{class_motor_steuerung_a828b0cfb476ce582625409850f233c9b}{{4.11}{25}{Öffentliche Methoden}{section*.30}{}}
\newlabel{class_motor_steuerung_a23da9f0cd18485eaa421e88196db38c5}{{4.11}{25}{Öffentliche Methoden}{section*.30}{}}
\newlabel{class_motor_steuerung_ab4efcdfd706b7a46de615ebfde2ce0f3}{{4.11}{25}{Öffentliche Methoden}{section*.30}{}}
\newlabel{class_motor_steuerung_a0be4fcd76fd465f4abb70823607ffe98}{{4.11}{25}{Geschützte Attribute}{section*.31}{}}
\@writefile{toc}{\contentsline {subsection}{\numberline {4.11.1}Ausführliche Beschreibung}{25}{subsection.4.11.1}\protected@file@percent }
\gdef \LT@xxii {\LT@entry 
    {3}{74.70097pt}\LT@entry 
    {3}{141.55653pt}}
\@writefile{toc}{\contentsline {section}{\numberline {4.12}Oeffnen Klassenreferenz}{26}{section.4.12}\protected@file@percent }
\newlabel{class_oeffnen}{{4.12}{26}{Oeffnen Klassenreferenz}{section.4.12}{}}
\@writefile{toc}{\contentsline {subsection}{\numberline {4.12.1}Ausführliche Beschreibung}{26}{subsection.4.12.1}\protected@file@percent }
\@writefile{toc}{\contentsline {subsection}{\numberline {4.12.2}Dokumentation der Elementfunktionen}{26}{subsection.4.12.2}\protected@file@percent }
\newlabel{class_oeffnen_ae5e4e28525252157bcf1135d153932a7}{{4.12.2}{26}{Dokumentation der Elementfunktionen}{subsection.4.12.2}{}}
\@writefile{toc}{\contentsline {subsubsection}{\numberline {4.12.2.1}buttonInput()}{26}{subsubsection.4.12.2.1}\protected@file@percent }
\newlabel{class_oeffnen_a9a98b0a8d5cccb54ad479712a55d966c}{{4.12.2.1}{26}{\texorpdfstring {buttonInput()}{buttonInput()}}{table.4.22}{}}
\@writefile{toc}{\contentsline {subsubsection}{\numberline {4.12.2.2}handle()}{26}{subsubsection.4.12.2.2}\protected@file@percent }
\gdef \LT@xxiii {\LT@entry 
    {3}{82.46748pt}\LT@entry 
    {3}{134.80649pt}}
\@writefile{toc}{\contentsline {section}{\numberline {4.13}Offen Klassenreferenz}{27}{section.4.13}\protected@file@percent }
\newlabel{class_offen}{{4.13}{27}{Offen Klassenreferenz}{section.4.13}{}}
\@writefile{toc}{\contentsline {subsection}{\numberline {4.13.1}Ausführliche Beschreibung}{27}{subsection.4.13.1}\protected@file@percent }
\@writefile{toc}{\contentsline {subsection}{\numberline {4.13.2}Dokumentation der Elementfunktionen}{27}{subsection.4.13.2}\protected@file@percent }
\newlabel{class_offen_a854dfcc01709d9c4952fe0baae212bb0}{{4.13.2}{27}{Dokumentation der Elementfunktionen}{subsection.4.13.2}{}}
\@writefile{toc}{\contentsline {subsubsection}{\numberline {4.13.2.1}buttonInput()}{27}{subsubsection.4.13.2.1}\protected@file@percent }
\gdef \LT@xxiv {\LT@entry 
    {3}{74.70097pt}\LT@entry 
    {3}{141.55653pt}}
\gdef \LT@xxv {\LT@entry 
    {3}{82.46748pt}\LT@entry 
    {3}{134.80649pt}}
\newlabel{class_offen_aed6db2ef38945b5960a9a4b3833d24bc}{{4.13.2.1}{28}{\texorpdfstring {buttonInput()}{buttonInput()}}{table.4.24}{}}
\@writefile{toc}{\contentsline {subsubsection}{\numberline {4.13.2.2}handle()}{28}{subsubsection.4.13.2.2}\protected@file@percent }
\@writefile{toc}{\contentsline {section}{\numberline {4.14}Schliessen Klassenreferenz}{28}{section.4.14}\protected@file@percent }
\newlabel{class_schliessen}{{4.14}{28}{Schliessen Klassenreferenz}{section.4.14}{}}
\@writefile{toc}{\contentsline {subsection}{\numberline {4.14.1}Ausführliche Beschreibung}{28}{subsection.4.14.1}\protected@file@percent }
\gdef \LT@xxvi {\LT@entry 
    {3}{74.70097pt}\LT@entry 
    {3}{141.55653pt}}
\gdef \LT@xxvii {\LT@entry 
    {3}{82.46748pt}\LT@entry 
    {3}{134.80649pt}}
\@writefile{toc}{\contentsline {subsection}{\numberline {4.14.2}Dokumentation der Elementfunktionen}{29}{subsection.4.14.2}\protected@file@percent }
\newlabel{class_schliessen_a5443becb2fa43e749ac016c175e53985}{{4.14.2}{29}{Dokumentation der Elementfunktionen}{subsection.4.14.2}{}}
\@writefile{toc}{\contentsline {subsubsection}{\numberline {4.14.2.1}buttonInput()}{29}{subsubsection.4.14.2.1}\protected@file@percent }
\newlabel{class_schliessen_a5e7bc9087a87189c893b108db9607906}{{4.14.2.1}{29}{\texorpdfstring {buttonInput()}{buttonInput()}}{table.4.26}{}}
\@writefile{toc}{\contentsline {subsubsection}{\numberline {4.14.2.2}handle()}{29}{subsubsection.4.14.2.2}\protected@file@percent }
\@writefile{toc}{\contentsline {section}{\numberline {4.15}Stoerung Klassenreferenz}{29}{section.4.15}\protected@file@percent }
\newlabel{class_stoerung}{{4.15}{29}{Stoerung Klassenreferenz}{section.4.15}{}}
\gdef \LT@xxviii {\LT@entry 
    {3}{74.70097pt}\LT@entry 
    {3}{141.55653pt}}
\@writefile{toc}{\contentsline {subsection}{\numberline {4.15.1}Ausführliche Beschreibung}{30}{subsection.4.15.1}\protected@file@percent }
\@writefile{toc}{\contentsline {subsection}{\numberline {4.15.2}Dokumentation der Elementfunktionen}{30}{subsection.4.15.2}\protected@file@percent }
\newlabel{class_stoerung_ab7701a02a04535a765b654b9d37c7774}{{4.15.2}{30}{Dokumentation der Elementfunktionen}{subsection.4.15.2}{}}
\@writefile{toc}{\contentsline {subsubsection}{\numberline {4.15.2.1}buttonInput()}{30}{subsubsection.4.15.2.1}\protected@file@percent }
\newlabel{class_stoerung_aa594a681417d190a8e5862b2635ca15d}{{4.15.2.1}{30}{\texorpdfstring {buttonInput()}{buttonInput()}}{table.4.28}{}}
\@writefile{toc}{\contentsline {subsubsection}{\numberline {4.15.2.2}handle()}{30}{subsubsection.4.15.2.2}\protected@file@percent }
\@writefile{toc}{\contentsline {section}{\numberline {4.16}Torzustand Klassenreferenz}{31}{section.4.16}\protected@file@percent }
\newlabel{class_torzustand}{{4.16}{31}{Torzustand Klassenreferenz}{section.4.16}{}}
\newlabel{class_torzustand_aee928c4ee781ff3061e71c93f4a82ee2}{{4.16}{31}{Öffentliche Methoden}{section*.42}{}}
\newlabel{class_torzustand_a45318bf5edf357294185147ee0af6685}{{4.16}{31}{Öffentliche Methoden}{section*.42}{}}
\@writefile{toc}{\contentsline {subsection}{\numberline {4.16.1}Ausführliche Beschreibung}{31}{subsection.4.16.1}\protected@file@percent }
\@writefile{toc}{\contentsline {section}{\numberline {4.17}User\discretionary {\mbox  {\scriptsize  $\hookleftarrow  $}}{}{}Buttons Klassenreferenz}{31}{section.4.17}\protected@file@percent }
\newlabel{class_user_buttons}{{4.17}{31}{User\+Buttons Klassenreferenz}{section.4.17}{}}
\gdef \LT@xxix {\LT@entry 
    {3}{50.32033pt}\LT@entry 
    {3}{245.23413pt}}
\newlabel{class_user_buttons_a31a2e9f6cc90d2595a3d66473814c2f8}{{4.17}{32}{Private Attribute}{section*.46}{}}
\newlabel{class_user_buttons_a6f29e04af8605ec7acb14832baf94af2}{{4.17}{32}{Private Attribute}{section*.46}{}}
\newlabel{class_user_buttons_a0769ba4dcf21ed629e10f68275285778}{{4.17}{32}{Private Attribute}{section*.46}{}}
\newlabel{class_user_buttons_a42397aa6f7840c806112d857d6858f35}{{4.17}{32}{Private Attribute}{section*.46}{}}
\newlabel{class_user_buttons_accbf62272ddd173c5f7e3b4766450fd7}{{4.17}{32}{Private Attribute}{section*.46}{}}
\@writefile{toc}{\contentsline {subsection}{\numberline {4.17.1}Ausführliche Beschreibung}{32}{subsection.4.17.1}\protected@file@percent }
\@writefile{toc}{\contentsline {subsection}{\numberline {4.17.2}Beschreibung der Konstruktoren und Destruktoren}{32}{subsection.4.17.2}\protected@file@percent }
\newlabel{class_user_buttons_a6cab8ef281cb2d03d00738c31196c483}{{4.17.2}{32}{Beschreibung der Konstruktoren und Destruktoren}{subsection.4.17.2}{}}
\@writefile{toc}{\contentsline {subsubsection}{\numberline {4.17.2.1}UserButtons()}{32}{subsubsection.4.17.2.1}\protected@file@percent }
\@writefile{toc}{\contentsline {subsection}{\numberline {4.17.3}Dokumentation der Elementfunktionen}{32}{subsection.4.17.3}\protected@file@percent }
\newlabel{class_user_buttons_adeea59e6fc209f7e79da07d974110352}{{4.17.3}{32}{Dokumentation der Elementfunktionen}{subsection.4.17.3}{}}
\@writefile{toc}{\contentsline {subsubsection}{\numberline {4.17.3.1}entprelleTaster()}{32}{subsubsection.4.17.3.1}\protected@file@percent }
\newlabel{class_user_buttons_acde25939cc6ed6a2ef870881ae867318}{{4.17.3.1}{33}{\texorpdfstring {entprelleTaster()}{entprelleTaster()}}{table.4.29}{}}
\@writefile{toc}{\contentsline {subsubsection}{\numberline {4.17.3.2}getTasterValue()}{33}{subsubsection.4.17.3.2}\protected@file@percent }
\newlabel{class_user_buttons_a8ed13d209eee8c1170deb29d94b5e3ab}{{4.17.3.2}{33}{\texorpdfstring {getTasterValue()}{getTasterValue()}}{subsubsection.4.17.3.2}{}}
\@writefile{toc}{\contentsline {subsubsection}{\numberline {4.17.3.3}init()}{33}{subsubsection.4.17.3.3}\protected@file@percent }
\@writefile{toc}{\contentsline {section}{\numberline {4.18}User\discretionary {\mbox  {\scriptsize  $\hookleftarrow  $}}{}{}Leds Klassenreferenz}{33}{section.4.18}\protected@file@percent }
\newlabel{class_user_leds}{{4.18}{33}{User\+Leds Klassenreferenz}{section.4.18}{}}
\newlabel{class_user_leds_af7a2bb48a1c883e884689fec23d9d1d9}{{4.18}{34}{Private Attribute}{section*.49}{}}
\newlabel{class_user_leds_a2f9ae77e1f6888ecddb61f9cd8f0851b}{{4.18}{34}{Private Attribute}{section*.49}{}}
\newlabel{class_user_leds_aabd4f5ad2af7713062c8e3b1c0632b81}{{4.18}{34}{Private Attribute}{section*.49}{}}
\newlabel{class_user_leds_a297eaf9bc01c99dca7d0bb29a8f8ec74}{{4.18}{34}{Private Attribute}{section*.49}{}}
\@writefile{toc}{\contentsline {subsection}{\numberline {4.18.1}Ausführliche Beschreibung}{34}{subsection.4.18.1}\protected@file@percent }
\@writefile{toc}{\contentsline {subsection}{\numberline {4.18.2}Beschreibung der Konstruktoren und Destruktoren}{34}{subsection.4.18.2}\protected@file@percent }
\newlabel{class_user_leds_a3ad7fac12ad7f75e70f9a2197ab7d438}{{4.18.2}{34}{Beschreibung der Konstruktoren und Destruktoren}{subsection.4.18.2}{}}
\@writefile{toc}{\contentsline {subsubsection}{\numberline {4.18.2.1}UserLeds()}{34}{subsubsection.4.18.2.1}\protected@file@percent }
\@writefile{toc}{\contentsline {subsection}{\numberline {4.18.3}Dokumentation der Elementfunktionen}{34}{subsection.4.18.3}\protected@file@percent }
\newlabel{class_user_leds_afd3e315560f1d6c32ef576de6cd6460b}{{4.18.3}{34}{Dokumentation der Elementfunktionen}{subsection.4.18.3}{}}
\@writefile{toc}{\contentsline {subsubsection}{\numberline {4.18.3.1}init()}{34}{subsubsection.4.18.3.1}\protected@file@percent }
\newlabel{class_user_leds_a49c817d9aee2deb89afebe8daaa60864}{{4.18.3.1}{34}{\texorpdfstring {init()}{init()}}{subsubsection.4.18.3.1}{}}
\@writefile{toc}{\contentsline {subsubsection}{\numberline {4.18.3.2}setLed()}{34}{subsubsection.4.18.3.2}\protected@file@percent }
\gdef \LT@xxx {\LT@entry 
    {3}{40.1865pt}\LT@entry 
    {3}{276.4089pt}}
\gdef \LT@xxxi {\LT@entry 
    {3}{40.1865pt}\LT@entry 
    {3}{194.2683pt}}
\newlabel{class_user_leds_ae4a270c3f7c10978b17516b918f38ce5}{{4.18.3.2}{35}{\texorpdfstring {setLed()}{setLed()}}{table.4.30}{}}
\@writefile{toc}{\contentsline {subsubsection}{\numberline {4.18.3.3}setLeds()}{35}{subsubsection.4.18.3.3}\protected@file@percent }
\@writefile{toc}{\contentsline {chapter}{\numberline {5}Datei-\/\discretionary {\mbox  {\scriptsize  $\hookleftarrow  $}}{}{}Dokumentation}{37}{chapter.5}\protected@file@percent }
\@writefile{lof}{\addvspace {10\p@ }}
\@writefile{lot}{\addvspace {10\p@ }}
\@writefile{toc}{\contentsline {section}{\numberline {5.1}Ausgabe\discretionary {\mbox  {\scriptsize  $\hookleftarrow  $}}{}{}Board.\discretionary {\mbox  {\scriptsize  $\hookleftarrow  $}}{}{}cpp-\/Dateireferenz}{37}{section.5.1}\protected@file@percent }
\newlabel{_ausgabe_board_8cpp}{{5.1}{37}{Ausgabe\+Board.\+cpp-\/Dateireferenz}{section.5.1}{}}
\@writefile{toc}{\contentsline {subsection}{\numberline {5.1.1}Ausführliche Beschreibung}{37}{subsection.5.1.1}\protected@file@percent }
\@writefile{toc}{\contentsline {section}{\numberline {5.2}Ausgabe\discretionary {\mbox  {\scriptsize  $\hookleftarrow  $}}{}{}Board.\discretionary {\mbox  {\scriptsize  $\hookleftarrow  $}}{}{}h-\/Dateireferenz}{37}{section.5.2}\protected@file@percent }
\newlabel{_ausgabe_board_8h}{{5.2}{37}{Ausgabe\+Board.\+h-\/Dateireferenz}{section.5.2}{}}
\@writefile{toc}{\contentsline {subsection}{\numberline {5.2.1}Ausführliche Beschreibung}{37}{subsection.5.2.1}\protected@file@percent }
\@writefile{toc}{\contentsline {section}{\numberline {5.3}Ausgabe\discretionary {\mbox  {\scriptsize  $\hookleftarrow  $}}{}{}Konsole.\discretionary {\mbox  {\scriptsize  $\hookleftarrow  $}}{}{}cpp-\/Dateireferenz}{38}{section.5.3}\protected@file@percent }
\newlabel{_ausgabe_konsole_8cpp}{{5.3}{38}{Ausgabe\+Konsole.\+cpp-\/Dateireferenz}{section.5.3}{}}
\@writefile{toc}{\contentsline {subsection}{\numberline {5.3.1}Ausführliche Beschreibung}{38}{subsection.5.3.1}\protected@file@percent }
\@writefile{toc}{\contentsline {section}{\numberline {5.4}Ausgabe\discretionary {\mbox  {\scriptsize  $\hookleftarrow  $}}{}{}Konsole.\discretionary {\mbox  {\scriptsize  $\hookleftarrow  $}}{}{}h-\/Dateireferenz}{38}{section.5.4}\protected@file@percent }
\newlabel{_ausgabe_konsole_8h}{{5.4}{38}{Ausgabe\+Konsole.\+h-\/Dateireferenz}{section.5.4}{}}
\@writefile{toc}{\contentsline {subsection}{\numberline {5.4.1}Ausführliche Beschreibung}{38}{subsection.5.4.1}\protected@file@percent }
\@writefile{toc}{\contentsline {section}{\numberline {5.5}Beenden.\discretionary {\mbox  {\scriptsize  $\hookleftarrow  $}}{}{}h-\/Dateireferenz}{38}{section.5.5}\protected@file@percent }
\newlabel{_beenden_8h}{{5.5}{38}{Beenden.\+h-\/Dateireferenz}{section.5.5}{}}
\@writefile{toc}{\contentsline {subsection}{\numberline {5.5.1}Ausführliche Beschreibung}{39}{subsection.5.5.1}\protected@file@percent }
\@writefile{toc}{\contentsline {section}{\numberline {5.6}Betriebszustand.\discretionary {\mbox  {\scriptsize  $\hookleftarrow  $}}{}{}cpp-\/Dateireferenz}{39}{section.5.6}\protected@file@percent }
\newlabel{_betriebszustand_8cpp}{{5.6}{39}{Betriebszustand.\+cpp-\/Dateireferenz}{section.5.6}{}}
\@writefile{toc}{\contentsline {subsection}{\numberline {5.6.1}Ausführliche Beschreibung}{39}{subsection.5.6.1}\protected@file@percent }
\@writefile{toc}{\contentsline {section}{\numberline {5.7}Betriebszustand.\discretionary {\mbox  {\scriptsize  $\hookleftarrow  $}}{}{}h-\/Dateireferenz}{39}{section.5.7}\protected@file@percent }
\newlabel{_betriebszustand_8h}{{5.7}{39}{Betriebszustand.\+h-\/Dateireferenz}{section.5.7}{}}
\@writefile{toc}{\contentsline {subsection}{\numberline {5.7.1}Ausführliche Beschreibung}{39}{subsection.5.7.1}\protected@file@percent }
\@writefile{toc}{\contentsline {section}{\numberline {5.8}Eingabe.\discretionary {\mbox  {\scriptsize  $\hookleftarrow  $}}{}{}h-\/Dateireferenz}{40}{section.5.8}\protected@file@percent }
\newlabel{_eingabe_8h}{{5.8}{40}{Eingabe.\+h-\/Dateireferenz}{section.5.8}{}}
\@writefile{toc}{\contentsline {subsection}{\numberline {5.8.1}Ausführliche Beschreibung}{40}{subsection.5.8.1}\protected@file@percent }
\@writefile{toc}{\contentsline {section}{\numberline {5.9}Eingabe\discretionary {\mbox  {\scriptsize  $\hookleftarrow  $}}{}{}Konsole.\discretionary {\mbox  {\scriptsize  $\hookleftarrow  $}}{}{}cpp-\/Dateireferenz}{40}{section.5.9}\protected@file@percent }
\newlabel{_eingabe_konsole_8cpp}{{5.9}{40}{Eingabe\+Konsole.\+cpp-\/Dateireferenz}{section.5.9}{}}
\@writefile{toc}{\contentsline {subsection}{\numberline {5.9.1}Ausführliche Beschreibung}{40}{subsection.5.9.1}\protected@file@percent }
\@writefile{toc}{\contentsline {section}{\numberline {5.10}Eingabe\discretionary {\mbox  {\scriptsize  $\hookleftarrow  $}}{}{}Konsole.\discretionary {\mbox  {\scriptsize  $\hookleftarrow  $}}{}{}h-\/Dateireferenz}{40}{section.5.10}\protected@file@percent }
\newlabel{_eingabe_konsole_8h}{{5.10}{40}{Eingabe\+Konsole.\+h-\/Dateireferenz}{section.5.10}{}}
\@writefile{toc}{\contentsline {subsection}{\numberline {5.10.1}Ausführliche Beschreibung}{41}{subsection.5.10.1}\protected@file@percent }
\@writefile{toc}{\contentsline {section}{\numberline {5.11}Garagentorsteuerung.\discretionary {\mbox  {\scriptsize  $\hookleftarrow  $}}{}{}cpp-\/Dateireferenz}{41}{section.5.11}\protected@file@percent }
\newlabel{_garagentorsteuerung_8cpp}{{5.11}{41}{Garagentorsteuerung.\+cpp-\/Dateireferenz}{section.5.11}{}}
\@writefile{toc}{\contentsline {subsection}{\numberline {5.11.1}Ausführliche Beschreibung}{41}{subsection.5.11.1}\protected@file@percent }
\@writefile{toc}{\contentsline {section}{\numberline {5.12}Garagentorsteuerung.\discretionary {\mbox  {\scriptsize  $\hookleftarrow  $}}{}{}h-\/Dateireferenz}{41}{section.5.12}\protected@file@percent }
\newlabel{_garagentorsteuerung_8h}{{5.12}{41}{Garagentorsteuerung.\+h-\/Dateireferenz}{section.5.12}{}}
\@writefile{toc}{\contentsline {subsection}{\numberline {5.12.1}Ausführliche Beschreibung}{41}{subsection.5.12.1}\protected@file@percent }
\@writefile{toc}{\contentsline {section}{\numberline {5.13}Geschlossen.\discretionary {\mbox  {\scriptsize  $\hookleftarrow  $}}{}{}cpp-\/Dateireferenz}{42}{section.5.13}\protected@file@percent }
\newlabel{_geschlossen_8cpp}{{5.13}{42}{Geschlossen.\+cpp-\/Dateireferenz}{section.5.13}{}}
\@writefile{toc}{\contentsline {subsection}{\numberline {5.13.1}Ausführliche Beschreibung}{42}{subsection.5.13.1}\protected@file@percent }
\@writefile{toc}{\contentsline {section}{\numberline {5.14}Geschlossen.\discretionary {\mbox  {\scriptsize  $\hookleftarrow  $}}{}{}h-\/Dateireferenz}{42}{section.5.14}\protected@file@percent }
\newlabel{_geschlossen_8h}{{5.14}{42}{Geschlossen.\+h-\/Dateireferenz}{section.5.14}{}}
\@writefile{toc}{\contentsline {subsection}{\numberline {5.14.1}Ausführliche Beschreibung}{42}{subsection.5.14.1}\protected@file@percent }
\@writefile{toc}{\contentsline {section}{\numberline {5.15}gpio.\discretionary {\mbox  {\scriptsize  $\hookleftarrow  $}}{}{}cpp-\/Dateireferenz}{42}{section.5.15}\protected@file@percent }
\newlabel{gpio_8cpp}{{5.15}{42}{gpio.\+cpp-\/Dateireferenz}{section.5.15}{}}
\@writefile{toc}{\contentsline {subsection}{\numberline {5.15.1}Ausführliche Beschreibung}{43}{subsection.5.15.1}\protected@file@percent }
\@writefile{toc}{\contentsline {section}{\numberline {5.16}In\discretionary {\mbox  {\scriptsize  $\hookleftarrow  $}}{}{}Betrieb.\discretionary {\mbox  {\scriptsize  $\hookleftarrow  $}}{}{}cpp-\/Dateireferenz}{43}{section.5.16}\protected@file@percent }
\newlabel{_in_betrieb_8cpp}{{5.16}{43}{In\+Betrieb.\+cpp-\/Dateireferenz}{section.5.16}{}}
\@writefile{toc}{\contentsline {subsection}{\numberline {5.16.1}Ausführliche Beschreibung}{43}{subsection.5.16.1}\protected@file@percent }
\@writefile{toc}{\contentsline {section}{\numberline {5.17}In\discretionary {\mbox  {\scriptsize  $\hookleftarrow  $}}{}{}Betrieb.\discretionary {\mbox  {\scriptsize  $\hookleftarrow  $}}{}{}h-\/Dateireferenz}{43}{section.5.17}\protected@file@percent }
\newlabel{_in_betrieb_8h}{{5.17}{43}{In\+Betrieb.\+h-\/Dateireferenz}{section.5.17}{}}
\@writefile{toc}{\contentsline {subsection}{\numberline {5.17.1}Ausführliche Beschreibung}{43}{subsection.5.17.1}\protected@file@percent }
\@writefile{toc}{\contentsline {section}{\numberline {5.18}main.\discretionary {\mbox  {\scriptsize  $\hookleftarrow  $}}{}{}cpp-\/Dateireferenz}{44}{section.5.18}\protected@file@percent }
\newlabel{main_8cpp}{{5.18}{44}{main.\+cpp-\/Dateireferenz}{section.5.18}{}}
\newlabel{main_8cpp_ae66f6b31b5ad750f1fe042a706a4e3d4}{{5.18}{44}{Funktionen}{section*.59}{}}
\@writefile{toc}{\contentsline {subsection}{\numberline {5.18.1}Ausführliche Beschreibung}{44}{subsection.5.18.1}\protected@file@percent }
\@writefile{toc}{\contentsline {section}{\numberline {5.19}Motor\discretionary {\mbox  {\scriptsize  $\hookleftarrow  $}}{}{}Steuerung.\discretionary {\mbox  {\scriptsize  $\hookleftarrow  $}}{}{}h-\/Dateireferenz}{44}{section.5.19}\protected@file@percent }
\newlabel{_motor_steuerung_8h}{{5.19}{44}{Motor\+Steuerung.\+h-\/Dateireferenz}{section.5.19}{}}
\@writefile{toc}{\contentsline {subsection}{\numberline {5.19.1}Ausführliche Beschreibung}{44}{subsection.5.19.1}\protected@file@percent }
\@writefile{toc}{\contentsline {section}{\numberline {5.20}Oeffnen.\discretionary {\mbox  {\scriptsize  $\hookleftarrow  $}}{}{}cpp-\/Dateireferenz}{44}{section.5.20}\protected@file@percent }
\newlabel{_oeffnen_8cpp}{{5.20}{44}{Oeffnen.\+cpp-\/Dateireferenz}{section.5.20}{}}
\@writefile{toc}{\contentsline {subsection}{\numberline {5.20.1}Ausführliche Beschreibung}{45}{subsection.5.20.1}\protected@file@percent }
\@writefile{toc}{\contentsline {section}{\numberline {5.21}Oeffnen.\discretionary {\mbox  {\scriptsize  $\hookleftarrow  $}}{}{}h-\/Dateireferenz}{45}{section.5.21}\protected@file@percent }
\newlabel{_oeffnen_8h}{{5.21}{45}{Oeffnen.\+h-\/Dateireferenz}{section.5.21}{}}
\@writefile{toc}{\contentsline {subsection}{\numberline {5.21.1}Ausführliche Beschreibung}{45}{subsection.5.21.1}\protected@file@percent }
\@writefile{toc}{\contentsline {section}{\numberline {5.22}Offen.\discretionary {\mbox  {\scriptsize  $\hookleftarrow  $}}{}{}cpp-\/Dateireferenz}{45}{section.5.22}\protected@file@percent }
\newlabel{_offen_8cpp}{{5.22}{45}{Offen.\+cpp-\/Dateireferenz}{section.5.22}{}}
\@writefile{toc}{\contentsline {subsection}{\numberline {5.22.1}Ausführliche Beschreibung}{45}{subsection.5.22.1}\protected@file@percent }
\@writefile{toc}{\contentsline {section}{\numberline {5.23}Offen.\discretionary {\mbox  {\scriptsize  $\hookleftarrow  $}}{}{}h-\/Dateireferenz}{46}{section.5.23}\protected@file@percent }
\newlabel{_offen_8h}{{5.23}{46}{Offen.\+h-\/Dateireferenz}{section.5.23}{}}
\@writefile{toc}{\contentsline {subsection}{\numberline {5.23.1}Ausführliche Beschreibung}{46}{subsection.5.23.1}\protected@file@percent }
\@writefile{toc}{\contentsline {section}{\numberline {5.24}Schliessen.\discretionary {\mbox  {\scriptsize  $\hookleftarrow  $}}{}{}cpp-\/Dateireferenz}{46}{section.5.24}\protected@file@percent }
\newlabel{_schliessen_8cpp}{{5.24}{46}{Schliessen.\+cpp-\/Dateireferenz}{section.5.24}{}}
\@writefile{toc}{\contentsline {subsection}{\numberline {5.24.1}Ausführliche Beschreibung}{46}{subsection.5.24.1}\protected@file@percent }
\@writefile{toc}{\contentsline {section}{\numberline {5.25}Schliessen.\discretionary {\mbox  {\scriptsize  $\hookleftarrow  $}}{}{}h-\/Dateireferenz}{46}{section.5.25}\protected@file@percent }
\newlabel{_schliessen_8h}{{5.25}{46}{Schliessen.\+h-\/Dateireferenz}{section.5.25}{}}
\@writefile{toc}{\contentsline {subsection}{\numberline {5.25.1}Ausführliche Beschreibung}{47}{subsection.5.25.1}\protected@file@percent }
\@writefile{toc}{\contentsline {section}{\numberline {5.26}Stoerung.\discretionary {\mbox  {\scriptsize  $\hookleftarrow  $}}{}{}cpp-\/Dateireferenz}{47}{section.5.26}\protected@file@percent }
\newlabel{_stoerung_8cpp}{{5.26}{47}{Stoerung.\+cpp-\/Dateireferenz}{section.5.26}{}}
\@writefile{toc}{\contentsline {subsection}{\numberline {5.26.1}Ausführliche Beschreibung}{47}{subsection.5.26.1}\protected@file@percent }
\@writefile{toc}{\contentsline {section}{\numberline {5.27}Stoerung.\discretionary {\mbox  {\scriptsize  $\hookleftarrow  $}}{}{}h-\/Dateireferenz}{47}{section.5.27}\protected@file@percent }
\newlabel{_stoerung_8h}{{5.27}{47}{Stoerung.\+h-\/Dateireferenz}{section.5.27}{}}
\@writefile{toc}{\contentsline {subsection}{\numberline {5.27.1}Ausführliche Beschreibung}{47}{subsection.5.27.1}\protected@file@percent }
\@writefile{toc}{\contentsline {section}{\numberline {5.28}User\discretionary {\mbox  {\scriptsize  $\hookleftarrow  $}}{}{}Buttons.\discretionary {\mbox  {\scriptsize  $\hookleftarrow  $}}{}{}cpp-\/Dateireferenz}{48}{section.5.28}\protected@file@percent }
\newlabel{_user_buttons_8cpp}{{5.28}{48}{User\+Buttons.\+cpp-\/Dateireferenz}{section.5.28}{}}
\@writefile{toc}{\contentsline {subsection}{\numberline {5.28.1}Ausführliche Beschreibung}{48}{subsection.5.28.1}\protected@file@percent }
\@writefile{toc}{\contentsline {section}{\numberline {5.29}User\discretionary {\mbox  {\scriptsize  $\hookleftarrow  $}}{}{}Buttons.\discretionary {\mbox  {\scriptsize  $\hookleftarrow  $}}{}{}h-\/Dateireferenz}{48}{section.5.29}\protected@file@percent }
\newlabel{_user_buttons_8h}{{5.29}{48}{User\+Buttons.\+h-\/Dateireferenz}{section.5.29}{}}
\@writefile{toc}{\contentsline {subsection}{\numberline {5.29.1}Ausführliche Beschreibung}{48}{subsection.5.29.1}\protected@file@percent }
\@writefile{toc}{\contentsline {section}{\numberline {5.30}User\discretionary {\mbox  {\scriptsize  $\hookleftarrow  $}}{}{}Leds.\discretionary {\mbox  {\scriptsize  $\hookleftarrow  $}}{}{}cpp-\/Dateireferenz}{48}{section.5.30}\protected@file@percent }
\newlabel{_user_leds_8cpp}{{5.30}{48}{User\+Leds.\+cpp-\/Dateireferenz}{section.5.30}{}}
\@writefile{toc}{\contentsline {subsection}{\numberline {5.30.1}Ausführliche Beschreibung}{49}{subsection.5.30.1}\protected@file@percent }
\@writefile{toc}{\contentsline {section}{\numberline {5.31}User\discretionary {\mbox  {\scriptsize  $\hookleftarrow  $}}{}{}Leds.\discretionary {\mbox  {\scriptsize  $\hookleftarrow  $}}{}{}h-\/Dateireferenz}{49}{section.5.31}\protected@file@percent }
\newlabel{_user_leds_8h}{{5.31}{49}{User\+Leds.\+h-\/Dateireferenz}{section.5.31}{}}
\@writefile{toc}{\contentsline {subsection}{\numberline {5.31.1}Ausführliche Beschreibung}{49}{subsection.5.31.1}\protected@file@percent }
\@writefile{toc}{\contentsline {chapter}{Index}{51}{section*.67}\protected@file@percent }
