\@ifundefined {etoctocstyle}{\let \etoc@startlocaltoc \@gobble \let \etoc@settocdepth \@gobble \let \etoc@depthtag \@gobble \let \etoc@setlocaltop \@gobble }{}
\babel@toc {ngerman}{}
\contentsline {chapter}{\numberline {1}Hierarchie-\/\discretionary {\mbox {\scriptsize $\hookleftarrow $}}{}{}Verzeichnis}{1}{chapter.1}%
\contentsline {section}{\numberline {1.1}Klassenhierarchie}{1}{section.1.1}%
\contentsline {chapter}{\numberline {2}Klassen-\/\discretionary {\mbox {\scriptsize $\hookleftarrow $}}{}{}Verzeichnis}{3}{chapter.2}%
\contentsline {section}{\numberline {2.1}Auflistung der Klassen}{3}{section.2.1}%
\contentsline {chapter}{\numberline {3}Datei-\/\discretionary {\mbox {\scriptsize $\hookleftarrow $}}{}{}Verzeichnis}{5}{chapter.3}%
\contentsline {section}{\numberline {3.1}Auflistung der Dateien}{5}{section.3.1}%
\contentsline {chapter}{\numberline {4}Klassen-\/\discretionary {\mbox {\scriptsize $\hookleftarrow $}}{}{}Dokumentation}{7}{chapter.4}%
\contentsline {section}{\numberline {4.1}Ausgabe\discretionary {\mbox {\scriptsize $\hookleftarrow $}}{}{}Board Klassenreferenz}{7}{section.4.1}%
\contentsline {subsection}{\numberline {4.1.1}Ausführliche Beschreibung}{7}{subsection.4.1.1}%
\contentsline {subsection}{\numberline {4.1.2}Beschreibung der Konstruktoren und Destruktoren}{8}{subsection.4.1.2}%
\contentsline {subsubsection}{\numberline {4.1.2.1}AusgabeBoard()}{8}{subsubsection.4.1.2.1}%
\contentsline {subsection}{\numberline {4.1.3}Dokumentation der Elementfunktionen}{8}{subsection.4.1.3}%
\contentsline {subsubsection}{\numberline {4.1.3.1}deactivate()}{8}{subsubsection.4.1.3.1}%
\contentsline {subsubsection}{\numberline {4.1.3.2}setCurrentless()}{8}{subsubsection.4.1.3.2}%
\contentsline {subsubsection}{\numberline {4.1.3.3}setDirection()}{8}{subsubsection.4.1.3.3}%
\contentsline {subsubsection}{\numberline {4.1.3.4}start()}{9}{subsubsection.4.1.3.4}%
\contentsline {subsubsection}{\numberline {4.1.3.5}stop()}{9}{subsubsection.4.1.3.5}%
\contentsline {section}{\numberline {4.2}Ausgabe\discretionary {\mbox {\scriptsize $\hookleftarrow $}}{}{}Konsole Klassenreferenz}{9}{section.4.2}%
\contentsline {subsection}{\numberline {4.2.1}Ausführliche Beschreibung}{10}{subsection.4.2.1}%
\contentsline {subsection}{\numberline {4.2.2}Beschreibung der Konstruktoren und Destruktoren}{10}{subsection.4.2.2}%
\contentsline {subsubsection}{\numberline {4.2.2.1}AusgabeKonsole()}{10}{subsubsection.4.2.2.1}%
\contentsline {subsection}{\numberline {4.2.3}Dokumentation der Elementfunktionen}{10}{subsection.4.2.3}%
\contentsline {subsubsection}{\numberline {4.2.3.1}deactivate()}{10}{subsubsection.4.2.3.1}%
\contentsline {subsubsection}{\numberline {4.2.3.2}setCurrentless()}{10}{subsubsection.4.2.3.2}%
\contentsline {subsubsection}{\numberline {4.2.3.3}setDirection()}{10}{subsubsection.4.2.3.3}%
\contentsline {subsubsection}{\numberline {4.2.3.4}start()}{11}{subsubsection.4.2.3.4}%
\contentsline {subsubsection}{\numberline {4.2.3.5}stop()}{11}{subsubsection.4.2.3.5}%
\contentsline {section}{\numberline {4.3}Beenden Klassenreferenz}{11}{section.4.3}%
\contentsline {subsection}{\numberline {4.3.1}Ausführliche Beschreibung}{12}{subsection.4.3.1}%
\contentsline {subsection}{\numberline {4.3.2}Dokumentation der Elementfunktionen}{12}{subsection.4.3.2}%
\contentsline {subsubsection}{\numberline {4.3.2.1}buttonInput()}{12}{subsubsection.4.3.2.1}%
\contentsline {subsubsection}{\numberline {4.3.2.2}handle()}{12}{subsubsection.4.3.2.2}%
\contentsline {section}{\numberline {4.4}Betriebszustand Klassenreferenz}{12}{section.4.4}%
\contentsline {subsection}{\numberline {4.4.1}Ausführliche Beschreibung}{13}{subsection.4.4.1}%
\contentsline {subsection}{\numberline {4.4.2}Beschreibung der Konstruktoren und Destruktoren}{13}{subsection.4.4.2}%
\contentsline {subsubsection}{\numberline {4.4.2.1}Betriebszustand()}{13}{subsubsection.4.4.2.1}%
\contentsline {subsubsection}{\numberline {4.4.2.2}$\sim $Betriebszustand()}{13}{subsubsection.4.4.2.2}%
\contentsline {section}{\numberline {4.5}Eingabe Klassenreferenz}{13}{section.4.5}%
\contentsline {subsection}{\numberline {4.5.1}Ausführliche Beschreibung}{14}{subsection.4.5.1}%
\contentsline {section}{\numberline {4.6}Eingabe\discretionary {\mbox {\scriptsize $\hookleftarrow $}}{}{}Konsole Klassenreferenz}{14}{section.4.6}%
\contentsline {subsection}{\numberline {4.6.1}Ausführliche Beschreibung}{14}{subsection.4.6.1}%
\contentsline {subsection}{\numberline {4.6.2}Dokumentation der Elementfunktionen}{14}{subsection.4.6.2}%
\contentsline {subsubsection}{\numberline {4.6.2.1}getTasterValue()}{14}{subsubsection.4.6.2.1}%
\contentsline {section}{\numberline {4.7}Garagentorsteuerung Klassenreferenz}{15}{section.4.7}%
\contentsline {subsection}{\numberline {4.7.1}Ausführliche Beschreibung}{15}{subsection.4.7.1}%
\contentsline {subsection}{\numberline {4.7.2}Beschreibung der Konstruktoren und Destruktoren}{15}{subsection.4.7.2}%
\contentsline {subsubsection}{\numberline {4.7.2.1}Garagentorsteuerung()}{15}{subsubsection.4.7.2.1}%
\contentsline {subsubsection}{\numberline {4.7.2.2}$\sim $Garagentorsteuerung()}{15}{subsubsection.4.7.2.2}%
\contentsline {subsection}{\numberline {4.7.3}Dokumentation der Elementfunktionen}{15}{subsection.4.7.3}%
\contentsline {subsubsection}{\numberline {4.7.3.1}buttonInput()}{15}{subsubsection.4.7.3.1}%
\contentsline {subsubsection}{\numberline {4.7.3.2}changeState()}{16}{subsubsection.4.7.3.2}%
\contentsline {subsubsection}{\numberline {4.7.3.3}startApplication()}{16}{subsubsection.4.7.3.3}%
\contentsline {section}{\numberline {4.8}Geschlossen Klassenreferenz}{16}{section.4.8}%
\contentsline {subsection}{\numberline {4.8.1}Ausführliche Beschreibung}{17}{subsection.4.8.1}%
\contentsline {subsection}{\numberline {4.8.2}Dokumentation der Elementfunktionen}{17}{subsection.4.8.2}%
\contentsline {subsubsection}{\numberline {4.8.2.1}buttonInput()}{17}{subsubsection.4.8.2.1}%
\contentsline {subsubsection}{\numberline {4.8.2.2}handle()}{17}{subsubsection.4.8.2.2}%
\contentsline {section}{\numberline {4.9}Gpio Klassenreferenz}{17}{section.4.9}%
\contentsline {subsection}{\numberline {4.9.1}Ausführliche Beschreibung}{18}{subsection.4.9.1}%
\contentsline {subsection}{\numberline {4.9.2}Beschreibung der Konstruktoren und Destruktoren}{19}{subsection.4.9.2}%
\contentsline {subsubsection}{\numberline {4.9.2.1}Gpio()}{19}{subsubsection.4.9.2.1}%
\contentsline {subsection}{\numberline {4.9.3}Dokumentation der Elementfunktionen}{19}{subsection.4.9.3}%
\contentsline {subsubsection}{\numberline {4.9.3.1}enableGpioClock()}{19}{subsubsection.4.9.3.1}%
\contentsline {subsubsection}{\numberline {4.9.3.2}readPin()}{19}{subsubsection.4.9.3.2}%
\contentsline {subsubsection}{\numberline {4.9.3.3}readPort()}{20}{subsubsection.4.9.3.3}%
\contentsline {subsubsection}{\numberline {4.9.3.4}setPinInput()}{20}{subsubsection.4.9.3.4}%
\contentsline {subsubsection}{\numberline {4.9.3.5}setPinMode()}{20}{subsubsection.4.9.3.5}%
\contentsline {subsubsection}{\numberline {4.9.3.6}setPinOff()}{20}{subsubsection.4.9.3.6}%
\contentsline {subsubsection}{\numberline {4.9.3.7}setPinOn()}{21}{subsubsection.4.9.3.7}%
\contentsline {subsubsection}{\numberline {4.9.3.8}setPinOutput()}{21}{subsubsection.4.9.3.8}%
\contentsline {subsubsection}{\numberline {4.9.3.9}setPinOutputSpeed()}{21}{subsubsection.4.9.3.9}%
\contentsline {subsubsection}{\numberline {4.9.3.10}setPinOutputType()}{22}{subsubsection.4.9.3.10}%
\contentsline {subsubsection}{\numberline {4.9.3.11}setPinPullUpPullDown()}{22}{subsubsection.4.9.3.11}%
\contentsline {subsubsection}{\numberline {4.9.3.12}setPort()}{22}{subsubsection.4.9.3.12}%
\contentsline {subsubsection}{\numberline {4.9.3.13}togglePin()}{22}{subsubsection.4.9.3.13}%
\contentsline {section}{\numberline {4.10}In\discretionary {\mbox {\scriptsize $\hookleftarrow $}}{}{}Betrieb Klassenreferenz}{23}{section.4.10}%
\contentsline {subsection}{\numberline {4.10.1}Ausführliche Beschreibung}{23}{subsection.4.10.1}%
\contentsline {subsection}{\numberline {4.10.2}Beschreibung der Konstruktoren und Destruktoren}{23}{subsection.4.10.2}%
\contentsline {subsubsection}{\numberline {4.10.2.1}InBetrieb()}{24}{subsubsection.4.10.2.1}%
\contentsline {subsubsection}{\numberline {4.10.2.2}$\sim $InBetrieb()}{24}{subsubsection.4.10.2.2}%
\contentsline {subsection}{\numberline {4.10.3}Dokumentation der Elementfunktionen}{24}{subsection.4.10.3}%
\contentsline {subsubsection}{\numberline {4.10.3.1}buttonInput()}{24}{subsubsection.4.10.3.1}%
\contentsline {subsubsection}{\numberline {4.10.3.2}changeState()}{24}{subsubsection.4.10.3.2}%
\contentsline {subsubsection}{\numberline {4.10.3.3}handle()}{25}{subsubsection.4.10.3.3}%
\contentsline {section}{\numberline {4.11}Motor\discretionary {\mbox {\scriptsize $\hookleftarrow $}}{}{}Steuerung Klassenreferenz}{25}{section.4.11}%
\contentsline {subsection}{\numberline {4.11.1}Ausführliche Beschreibung}{25}{subsection.4.11.1}%
\contentsline {section}{\numberline {4.12}Oeffnen Klassenreferenz}{26}{section.4.12}%
\contentsline {subsection}{\numberline {4.12.1}Ausführliche Beschreibung}{26}{subsection.4.12.1}%
\contentsline {subsection}{\numberline {4.12.2}Dokumentation der Elementfunktionen}{26}{subsection.4.12.2}%
\contentsline {subsubsection}{\numberline {4.12.2.1}buttonInput()}{26}{subsubsection.4.12.2.1}%
\contentsline {subsubsection}{\numberline {4.12.2.2}handle()}{26}{subsubsection.4.12.2.2}%
\contentsline {section}{\numberline {4.13}Offen Klassenreferenz}{27}{section.4.13}%
\contentsline {subsection}{\numberline {4.13.1}Ausführliche Beschreibung}{27}{subsection.4.13.1}%
\contentsline {subsection}{\numberline {4.13.2}Dokumentation der Elementfunktionen}{27}{subsection.4.13.2}%
\contentsline {subsubsection}{\numberline {4.13.2.1}buttonInput()}{27}{subsubsection.4.13.2.1}%
\contentsline {subsubsection}{\numberline {4.13.2.2}handle()}{28}{subsubsection.4.13.2.2}%
\contentsline {section}{\numberline {4.14}Schliessen Klassenreferenz}{28}{section.4.14}%
\contentsline {subsection}{\numberline {4.14.1}Ausführliche Beschreibung}{28}{subsection.4.14.1}%
\contentsline {subsection}{\numberline {4.14.2}Dokumentation der Elementfunktionen}{29}{subsection.4.14.2}%
\contentsline {subsubsection}{\numberline {4.14.2.1}buttonInput()}{29}{subsubsection.4.14.2.1}%
\contentsline {subsubsection}{\numberline {4.14.2.2}handle()}{29}{subsubsection.4.14.2.2}%
\contentsline {section}{\numberline {4.15}Stoerung Klassenreferenz}{29}{section.4.15}%
\contentsline {subsection}{\numberline {4.15.1}Ausführliche Beschreibung}{30}{subsection.4.15.1}%
\contentsline {subsection}{\numberline {4.15.2}Dokumentation der Elementfunktionen}{30}{subsection.4.15.2}%
\contentsline {subsubsection}{\numberline {4.15.2.1}buttonInput()}{30}{subsubsection.4.15.2.1}%
\contentsline {subsubsection}{\numberline {4.15.2.2}handle()}{30}{subsubsection.4.15.2.2}%
\contentsline {section}{\numberline {4.16}Torzustand Klassenreferenz}{31}{section.4.16}%
\contentsline {subsection}{\numberline {4.16.1}Ausführliche Beschreibung}{31}{subsection.4.16.1}%
\contentsline {section}{\numberline {4.17}User\discretionary {\mbox {\scriptsize $\hookleftarrow $}}{}{}Buttons Klassenreferenz}{31}{section.4.17}%
\contentsline {subsection}{\numberline {4.17.1}Ausführliche Beschreibung}{32}{subsection.4.17.1}%
\contentsline {subsection}{\numberline {4.17.2}Beschreibung der Konstruktoren und Destruktoren}{32}{subsection.4.17.2}%
\contentsline {subsubsection}{\numberline {4.17.2.1}UserButtons()}{32}{subsubsection.4.17.2.1}%
\contentsline {subsection}{\numberline {4.17.3}Dokumentation der Elementfunktionen}{32}{subsection.4.17.3}%
\contentsline {subsubsection}{\numberline {4.17.3.1}entprelleTaster()}{32}{subsubsection.4.17.3.1}%
\contentsline {subsubsection}{\numberline {4.17.3.2}getTasterValue()}{33}{subsubsection.4.17.3.2}%
\contentsline {subsubsection}{\numberline {4.17.3.3}init()}{33}{subsubsection.4.17.3.3}%
\contentsline {section}{\numberline {4.18}User\discretionary {\mbox {\scriptsize $\hookleftarrow $}}{}{}Leds Klassenreferenz}{33}{section.4.18}%
\contentsline {subsection}{\numberline {4.18.1}Ausführliche Beschreibung}{34}{subsection.4.18.1}%
\contentsline {subsection}{\numberline {4.18.2}Beschreibung der Konstruktoren und Destruktoren}{34}{subsection.4.18.2}%
\contentsline {subsubsection}{\numberline {4.18.2.1}UserLeds()}{34}{subsubsection.4.18.2.1}%
\contentsline {subsection}{\numberline {4.18.3}Dokumentation der Elementfunktionen}{34}{subsection.4.18.3}%
\contentsline {subsubsection}{\numberline {4.18.3.1}init()}{34}{subsubsection.4.18.3.1}%
\contentsline {subsubsection}{\numberline {4.18.3.2}setLed()}{34}{subsubsection.4.18.3.2}%
\contentsline {subsubsection}{\numberline {4.18.3.3}setLeds()}{35}{subsubsection.4.18.3.3}%
\contentsline {chapter}{\numberline {5}Datei-\/\discretionary {\mbox {\scriptsize $\hookleftarrow $}}{}{}Dokumentation}{37}{chapter.5}%
\contentsline {section}{\numberline {5.1}Ausgabe\discretionary {\mbox {\scriptsize $\hookleftarrow $}}{}{}Board.\discretionary {\mbox {\scriptsize $\hookleftarrow $}}{}{}cpp-\/Dateireferenz}{37}{section.5.1}%
\contentsline {subsection}{\numberline {5.1.1}Ausführliche Beschreibung}{37}{subsection.5.1.1}%
\contentsline {section}{\numberline {5.2}Ausgabe\discretionary {\mbox {\scriptsize $\hookleftarrow $}}{}{}Board.\discretionary {\mbox {\scriptsize $\hookleftarrow $}}{}{}h-\/Dateireferenz}{37}{section.5.2}%
\contentsline {subsection}{\numberline {5.2.1}Ausführliche Beschreibung}{37}{subsection.5.2.1}%
\contentsline {section}{\numberline {5.3}Ausgabe\discretionary {\mbox {\scriptsize $\hookleftarrow $}}{}{}Konsole.\discretionary {\mbox {\scriptsize $\hookleftarrow $}}{}{}cpp-\/Dateireferenz}{38}{section.5.3}%
\contentsline {subsection}{\numberline {5.3.1}Ausführliche Beschreibung}{38}{subsection.5.3.1}%
\contentsline {section}{\numberline {5.4}Ausgabe\discretionary {\mbox {\scriptsize $\hookleftarrow $}}{}{}Konsole.\discretionary {\mbox {\scriptsize $\hookleftarrow $}}{}{}h-\/Dateireferenz}{38}{section.5.4}%
\contentsline {subsection}{\numberline {5.4.1}Ausführliche Beschreibung}{38}{subsection.5.4.1}%
\contentsline {section}{\numberline {5.5}Beenden.\discretionary {\mbox {\scriptsize $\hookleftarrow $}}{}{}h-\/Dateireferenz}{38}{section.5.5}%
\contentsline {subsection}{\numberline {5.5.1}Ausführliche Beschreibung}{39}{subsection.5.5.1}%
\contentsline {section}{\numberline {5.6}Betriebszustand.\discretionary {\mbox {\scriptsize $\hookleftarrow $}}{}{}cpp-\/Dateireferenz}{39}{section.5.6}%
\contentsline {subsection}{\numberline {5.6.1}Ausführliche Beschreibung}{39}{subsection.5.6.1}%
\contentsline {section}{\numberline {5.7}Betriebszustand.\discretionary {\mbox {\scriptsize $\hookleftarrow $}}{}{}h-\/Dateireferenz}{39}{section.5.7}%
\contentsline {subsection}{\numberline {5.7.1}Ausführliche Beschreibung}{39}{subsection.5.7.1}%
\contentsline {section}{\numberline {5.8}Eingabe.\discretionary {\mbox {\scriptsize $\hookleftarrow $}}{}{}h-\/Dateireferenz}{40}{section.5.8}%
\contentsline {subsection}{\numberline {5.8.1}Ausführliche Beschreibung}{40}{subsection.5.8.1}%
\contentsline {section}{\numberline {5.9}Eingabe\discretionary {\mbox {\scriptsize $\hookleftarrow $}}{}{}Konsole.\discretionary {\mbox {\scriptsize $\hookleftarrow $}}{}{}cpp-\/Dateireferenz}{40}{section.5.9}%
\contentsline {subsection}{\numberline {5.9.1}Ausführliche Beschreibung}{40}{subsection.5.9.1}%
\contentsline {section}{\numberline {5.10}Eingabe\discretionary {\mbox {\scriptsize $\hookleftarrow $}}{}{}Konsole.\discretionary {\mbox {\scriptsize $\hookleftarrow $}}{}{}h-\/Dateireferenz}{40}{section.5.10}%
\contentsline {subsection}{\numberline {5.10.1}Ausführliche Beschreibung}{41}{subsection.5.10.1}%
\contentsline {section}{\numberline {5.11}Garagentorsteuerung.\discretionary {\mbox {\scriptsize $\hookleftarrow $}}{}{}cpp-\/Dateireferenz}{41}{section.5.11}%
\contentsline {subsection}{\numberline {5.11.1}Ausführliche Beschreibung}{41}{subsection.5.11.1}%
\contentsline {section}{\numberline {5.12}Garagentorsteuerung.\discretionary {\mbox {\scriptsize $\hookleftarrow $}}{}{}h-\/Dateireferenz}{41}{section.5.12}%
\contentsline {subsection}{\numberline {5.12.1}Ausführliche Beschreibung}{41}{subsection.5.12.1}%
\contentsline {section}{\numberline {5.13}Geschlossen.\discretionary {\mbox {\scriptsize $\hookleftarrow $}}{}{}cpp-\/Dateireferenz}{42}{section.5.13}%
\contentsline {subsection}{\numberline {5.13.1}Ausführliche Beschreibung}{42}{subsection.5.13.1}%
\contentsline {section}{\numberline {5.14}Geschlossen.\discretionary {\mbox {\scriptsize $\hookleftarrow $}}{}{}h-\/Dateireferenz}{42}{section.5.14}%
\contentsline {subsection}{\numberline {5.14.1}Ausführliche Beschreibung}{42}{subsection.5.14.1}%
\contentsline {section}{\numberline {5.15}gpio.\discretionary {\mbox {\scriptsize $\hookleftarrow $}}{}{}cpp-\/Dateireferenz}{42}{section.5.15}%
\contentsline {subsection}{\numberline {5.15.1}Ausführliche Beschreibung}{43}{subsection.5.15.1}%
\contentsline {section}{\numberline {5.16}In\discretionary {\mbox {\scriptsize $\hookleftarrow $}}{}{}Betrieb.\discretionary {\mbox {\scriptsize $\hookleftarrow $}}{}{}cpp-\/Dateireferenz}{43}{section.5.16}%
\contentsline {subsection}{\numberline {5.16.1}Ausführliche Beschreibung}{43}{subsection.5.16.1}%
\contentsline {section}{\numberline {5.17}In\discretionary {\mbox {\scriptsize $\hookleftarrow $}}{}{}Betrieb.\discretionary {\mbox {\scriptsize $\hookleftarrow $}}{}{}h-\/Dateireferenz}{43}{section.5.17}%
\contentsline {subsection}{\numberline {5.17.1}Ausführliche Beschreibung}{43}{subsection.5.17.1}%
\contentsline {section}{\numberline {5.18}main.\discretionary {\mbox {\scriptsize $\hookleftarrow $}}{}{}cpp-\/Dateireferenz}{44}{section.5.18}%
\contentsline {subsection}{\numberline {5.18.1}Ausführliche Beschreibung}{44}{subsection.5.18.1}%
\contentsline {section}{\numberline {5.19}Motor\discretionary {\mbox {\scriptsize $\hookleftarrow $}}{}{}Steuerung.\discretionary {\mbox {\scriptsize $\hookleftarrow $}}{}{}h-\/Dateireferenz}{44}{section.5.19}%
\contentsline {subsection}{\numberline {5.19.1}Ausführliche Beschreibung}{44}{subsection.5.19.1}%
\contentsline {section}{\numberline {5.20}Oeffnen.\discretionary {\mbox {\scriptsize $\hookleftarrow $}}{}{}cpp-\/Dateireferenz}{44}{section.5.20}%
\contentsline {subsection}{\numberline {5.20.1}Ausführliche Beschreibung}{45}{subsection.5.20.1}%
\contentsline {section}{\numberline {5.21}Oeffnen.\discretionary {\mbox {\scriptsize $\hookleftarrow $}}{}{}h-\/Dateireferenz}{45}{section.5.21}%
\contentsline {subsection}{\numberline {5.21.1}Ausführliche Beschreibung}{45}{subsection.5.21.1}%
\contentsline {section}{\numberline {5.22}Offen.\discretionary {\mbox {\scriptsize $\hookleftarrow $}}{}{}cpp-\/Dateireferenz}{45}{section.5.22}%
\contentsline {subsection}{\numberline {5.22.1}Ausführliche Beschreibung}{45}{subsection.5.22.1}%
\contentsline {section}{\numberline {5.23}Offen.\discretionary {\mbox {\scriptsize $\hookleftarrow $}}{}{}h-\/Dateireferenz}{46}{section.5.23}%
\contentsline {subsection}{\numberline {5.23.1}Ausführliche Beschreibung}{46}{subsection.5.23.1}%
\contentsline {section}{\numberline {5.24}Schliessen.\discretionary {\mbox {\scriptsize $\hookleftarrow $}}{}{}cpp-\/Dateireferenz}{46}{section.5.24}%
\contentsline {subsection}{\numberline {5.24.1}Ausführliche Beschreibung}{46}{subsection.5.24.1}%
\contentsline {section}{\numberline {5.25}Schliessen.\discretionary {\mbox {\scriptsize $\hookleftarrow $}}{}{}h-\/Dateireferenz}{46}{section.5.25}%
\contentsline {subsection}{\numberline {5.25.1}Ausführliche Beschreibung}{47}{subsection.5.25.1}%
\contentsline {section}{\numberline {5.26}Stoerung.\discretionary {\mbox {\scriptsize $\hookleftarrow $}}{}{}cpp-\/Dateireferenz}{47}{section.5.26}%
\contentsline {subsection}{\numberline {5.26.1}Ausführliche Beschreibung}{47}{subsection.5.26.1}%
\contentsline {section}{\numberline {5.27}Stoerung.\discretionary {\mbox {\scriptsize $\hookleftarrow $}}{}{}h-\/Dateireferenz}{47}{section.5.27}%
\contentsline {subsection}{\numberline {5.27.1}Ausführliche Beschreibung}{47}{subsection.5.27.1}%
\contentsline {section}{\numberline {5.28}User\discretionary {\mbox {\scriptsize $\hookleftarrow $}}{}{}Buttons.\discretionary {\mbox {\scriptsize $\hookleftarrow $}}{}{}cpp-\/Dateireferenz}{48}{section.5.28}%
\contentsline {subsection}{\numberline {5.28.1}Ausführliche Beschreibung}{48}{subsection.5.28.1}%
\contentsline {section}{\numberline {5.29}User\discretionary {\mbox {\scriptsize $\hookleftarrow $}}{}{}Buttons.\discretionary {\mbox {\scriptsize $\hookleftarrow $}}{}{}h-\/Dateireferenz}{48}{section.5.29}%
\contentsline {subsection}{\numberline {5.29.1}Ausführliche Beschreibung}{48}{subsection.5.29.1}%
\contentsline {section}{\numberline {5.30}User\discretionary {\mbox {\scriptsize $\hookleftarrow $}}{}{}Leds.\discretionary {\mbox {\scriptsize $\hookleftarrow $}}{}{}cpp-\/Dateireferenz}{48}{section.5.30}%
\contentsline {subsection}{\numberline {5.30.1}Ausführliche Beschreibung}{49}{subsection.5.30.1}%
\contentsline {section}{\numberline {5.31}User\discretionary {\mbox {\scriptsize $\hookleftarrow $}}{}{}Leds.\discretionary {\mbox {\scriptsize $\hookleftarrow $}}{}{}h-\/Dateireferenz}{49}{section.5.31}%
\contentsline {subsection}{\numberline {5.31.1}Ausführliche Beschreibung}{49}{subsection.5.31.1}%
\contentsline {chapter}{Index}{51}{section*.67}%
